<svg xmlns="http://www.w3.org/2000/svg" xmlns:xlink="http://www.w3.org/1999/xlink" width="1440" height="900" viewBox="0 0 1440 900">
  <defs>
    <clipPath id="clip-path">
      <path id="Path_436" data-name="Path 436" d="M3050-6578H4490v-900H3050Z" fill="none"/>
    </clipPath>
    <clipPath id="clip-path-2">
      <rect id="Rectangle_95" data-name="Rectangle 95" width="60" height="54" transform="translate(4198 -7352)" fill="none"/>
    </clipPath>
    <clipPath id="clip-path-3">
      <path id="Path_435" data-name="Path 435" d="M4230.241-7346.955c4.885-3.878,9.259-5.043,12.316-3.278s4.236,6.136,3.318,12.3c-.14.944-.326,1.917-.557,2.912h0l.725.229c.717.234,1.41.482,2.075.744,5.8,2.29,9,5.5,9,9.026s-3.2,6.736-9,9.027c-.887.35-1.823.675-2.8.972h0q.345,1.493.557,2.911c.918,6.169-.261,10.539-3.318,12.3s-7.431.6-12.316-3.278q-1.121-.891-2.241-1.938h0c-.747.7-1.5,1.345-2.243,1.938-4.883,3.88-9.257,5.044-12.314,3.279s-4.236-6.135-3.32-12.3c.141-.944.328-1.916.558-2.91q-1.467-.447-2.8-.973c-5.8-2.291-9-5.5-9-9.027s3.2-6.736,9-9.026c.888-.35,1.824-.676,2.8-.973h0q-.257-1.122-.442-2.2l-.114-.713c-.916-6.169.263-10.54,3.32-12.3s7.431-.6,12.314,3.279q1.121.89,2.244,1.938h0q.843-.784,1.684-1.483Zm12.414,32.657-.809.187a58.806,58.806,0,0,1-6.922,1.088h0a57.94,57.94,0,0,1-4.967,6.057q1,.929,2,1.725a17.748,17.748,0,0,0,5.531,3.168,4.6,4.6,0,0,0,3.69-.118,4.6,4.6,0,0,0,1.947-3.137,17.765,17.765,0,0,0,.023-6.374c-.126-.842-.289-1.709-.493-2.6Zm-29.311,0c-.2.887-.368,1.754-.494,2.6a17.765,17.765,0,0,0,.023,6.374,4.591,4.591,0,0,0,1.947,3.136,4.594,4.594,0,0,0,3.69.119,17.737,17.737,0,0,0,5.532-3.168q1-.795,2-1.725a57.726,57.726,0,0,1-4.969-6.057,57.854,57.854,0,0,1-7.731-1.275Zm17.945,1.536q-1.626.075-3.289.075c-1.108,0-2.208-.025-3.293-.075,1.077,1.385,2.179,2.676,3.293,3.854,1.114-1.179,2.215-2.47,3.291-3.855ZM4228-7334.591c-1.838,0-3.647.071-5.406.211-1,1.453-1.966,2.984-2.885,4.576s-1.762,3.193-2.52,4.788c.758,1.592,1.6,3.193,2.52,4.785s1.885,3.122,2.887,4.576c1.758.139,3.566.21,5.4.21s3.646-.071,5.406-.212c1-1.452,1.965-2.983,2.884-4.574s1.761-3.194,2.52-4.787c-.758-1.593-1.6-3.194-2.52-4.786s-1.885-3.123-2.885-4.577C4231.646-7334.52,4229.838-7334.591,4228-7334.591Zm12.258,12.849-.508.965q-.518.965-1.072,1.925-.831,1.438-1.712,2.813c1.738-.24,3.407-.548,4.986-.924-.465-1.555-1.032-3.154-1.694-4.778Zm-24.518,0c-.662,1.624-1.229,3.223-1.692,4.778,1.578.375,3.247.683,4.984.922q-.881-1.371-1.711-2.812t-1.582-2.889Zm-4.354-10.61q-1.3.4-2.493.871a17.772,17.772,0,0,0-5.509,3.206,4.6,4.6,0,0,0-1.743,3.255,4.6,4.6,0,0,0,1.743,3.255,17.782,17.782,0,0,0,5.509,3.207q1.188.468,2.494.87a57.711,57.711,0,0,1,2.762-7.332h0l-.369-.83a57.036,57.036,0,0,1-2.393-6.5Zm33.225,0-.243.795a59.241,59.241,0,0,1-2.518,6.536h0a58.086,58.086,0,0,1,2.761,7.333h0q1.305-.4,2.5-.87a17.8,17.8,0,0,0,5.509-3.207,4.594,4.594,0,0,0,1.742-3.255,4.592,4.592,0,0,0-1.742-3.254,17.77,17.77,0,0,0-5.509-3.207q-1.189-.469-2.5-.871ZM4228-7330.49a5.472,5.472,0,0,1,5.472,5.472,5.472,5.472,0,0,1-5.472,5.472,5.472,5.472,0,0,1-5.472-5.472A5.472,5.472,0,0,1,4228-7330.49Zm8.967-3.506.58.922q.578.932,1.131,1.891.831,1.44,1.581,2.89v0c.552-1.354,1.038-2.69,1.453-4l.241-.779c-1.579-.376-3.248-.685-4.985-.924Zm-17.936,0c-1.737.239-3.406.548-4.984.923.464,1.555,1.032,3.154,1.693,4.778q.748-1.449,1.581-2.888t1.71-2.814Zm-.521-13.967a4.6,4.6,0,0,0-3.69.118,4.6,4.6,0,0,0-1.947,3.137,17.765,17.765,0,0,0-.023,6.374c.126.842.29,1.709.493,2.6h0a57.971,57.971,0,0,1,7.73-1.274h0a57.8,57.8,0,0,1,4.971-6.059h0l-.5-.456q-.75-.672-1.5-1.268A17.746,17.746,0,0,0,4218.51-7347.963Zm22.668.118a4.6,4.6,0,0,0-3.69-.118,17.772,17.772,0,0,0-5.531,3.167q-1,.8-2,1.725h0a57.714,57.714,0,0,1,4.968,6.057h0a58.083,58.083,0,0,1,7.732,1.275h0c.2-.887.368-1.754.493-2.6a17.745,17.745,0,0,0-.022-6.374A4.6,4.6,0,0,0,4241.178-7347.845ZM4228-7341.128c-1.114,1.179-2.216,2.47-3.291,3.855h0c1.084-.05,2.184-.076,3.292-.076s2.208.026,3.293.076c-1.078-1.385-2.18-2.677-3.294-3.856Z" fill="none"/>
    </clipPath>
    <clipPath id="clip-path-4">
      <path id="Path_434" data-name="Path 434" d="M4198-7298h60v-54h-60Z" fill="none"/>
    </clipPath>
  </defs>
  <g id="Group_628" data-name="Group 628" transform="translate(-3050 7478)" clip-path="url(#clip-path)">
    <g id="Group_627" data-name="Group 627" opacity="0.5" style="isolation: isolate">
      <g id="react" clip-path="url(#clip-path-2)">
        <g id="Group_625" data-name="Group 625" clip-path="url(#clip-path-3)">
          <g id="Group_624" data-name="Group 624" clip-path="url(#clip-path-4)">
            <path id="Path_433" data-name="Path 433" d="M4193.884-7356.036h68.231V-7294h-68.231Z" fill="#fff"/>
          </g>
        </g>
      </g>
    </g>
  </g>
</svg>
