<svg xmlns="http://www.w3.org/2000/svg" xmlns:xlink="http://www.w3.org/1999/xlink" width="60" height="60" viewBox="0 0 60 60">
  <defs>
    <clipPath id="clip-path">
      <path id="Path_431" data-name="Path 431" d="M3923.1-7352a8.8,8.8,0,0,1,8.785,8.53l0,.259v8.32h8.32a8.8,8.8,0,0,1,8.785,8.531l0,.258v8.2a8.8,8.8,0,0,1-8.53,8.785l-.259,0h-8.32v8.32a8.8,8.8,0,0,1-8.531,8.785l-.258,0h-8.2a8.8,8.8,0,0,1-8.785-8.53l0-.259v-8.32h-8.32a8.8,8.8,0,0,1-8.785-8.531l0-.258v-8.2a8.8,8.8,0,0,1,8.53-8.785l.259,0h8.32v-8.32a8.8,8.8,0,0,1,8.531-8.785l.258,0Zm17.109,20.625h-8.32V-7322a1.759,1.759,0,0,1-1.614,1.752l-.144.006h-20.508v19.453a5.28,5.28,0,0,0,5.056,5.269l.217,0h8.2a5.281,5.281,0,0,0,5.269-5.056l0-.217v-8.32H3919a1.758,1.758,0,0,1-1.758-1.758,1.757,1.757,0,0,1,1.614-1.752l.144-.006h21.211a5.28,5.28,0,0,0,5.269-5.056l0-.217v-8.2A5.279,5.279,0,0,0,3940.211-7331.375Zm-17.109,27.07a1.758,1.758,0,0,1,1.757,1.758,1.758,1.758,0,0,1-1.757,1.758,1.758,1.758,0,0,1-1.758-1.758A1.758,1.758,0,0,1,3923.1-7304.305Zm-8.2-38.906a1.758,1.758,0,0,0-1.757,1.758,1.758,1.758,0,0,0,1.757,1.758,1.758,1.758,0,0,0,1.758-1.758A1.758,1.758,0,0,0,3914.9-7343.211Z" fill="none"/>
    </clipPath>
    <clipPath id="clip-path-2">
      <path id="Path_430" data-name="Path 430" d="M3889-7292h60v-60h-60Z" fill="none"/>
    </clipPath>
  </defs>
  <g id="paython" transform="translate(-3889 7352)" clip-path="url(#clip-path)">
    <g id="Group_615" data-name="Group 615" clip-path="url(#clip-path-2)">
      <path id="Path_429" data-name="Path 429" d="M3884-7357h70v70h-70Z" fill="#fff"/>
    </g>
  </g>
</svg>
