<svg xmlns="http://www.w3.org/2000/svg" width="56.621" height="59.98" viewBox="0 0 56.621 59.98">
  <g id="angular" transform="translate(-0.021 -0.004)">
    <g id="_3-copy-2" data-name="3-copy-2" transform="translate(-841 -310)">
      <g id="angular-icon-copy-2" transform="translate(841 310)">
        <path id="Combined-Shape" d="M28.241,0l28.4,9.756L52.184,46.731,28.271,59.984,4.48,46.908.021,9.935Zm-.066,3.144L3.187,12.054,7.009,45.12,28.175,56.86l21.5-11.9L53.827,11.9Zm0,1.951L46.426,44.031,40.2,43.916l-3.83-8.872-8.179-.009-.016.009H20.733l-3.5,8.751-6.507.12Zm.047,12.445L23.028,29.864h5.147l.294.009h5.646Z" fill="#fff"/>
      </g>
    </g>
  </g>
</svg>
