<?xml version="1.0" encoding="UTF-8"?>
<svg width="500px" height="405px" viewBox="0 0 500 405" version="1.1" xmlns="http://www.w3.org/2000/svg" xmlns:xlink="http://www.w3.org/1999/xlink">
    <title>1</title>
    <defs>
        <linearGradient x1="50%" y1="0%" x2="50%" y2="100%" id="linearGradient-1">
            <stop stop-color="#F3F3F3" offset="0%"></stop>
            <stop stop-color="#C8C8C8" offset="100%"></stop>
        </linearGradient>
        <linearGradient x1="55.6763419%" y1="30.3005661%" x2="46.471574%" y2="-12.1286981%" id="linearGradient-2">
            <stop stop-color="#FFFFFF" offset="0%"></stop>
            <stop stop-color="#E3E4E4" offset="98.2052365%"></stop>
        </linearGradient>
        <linearGradient x1="55.9767135%" y1="30.3005661%" x2="46.2848623%" y2="-12.1286981%" id="linearGradient-3">
            <stop stop-color="#FFFFFF" offset="0%"></stop>
            <stop stop-color="#E3E4E4" offset="98.2052365%"></stop>
        </linearGradient>
        <linearGradient x1="54.2753095%" y1="30.3005661%" x2="47.3424586%" y2="-12.1286981%" id="linearGradient-4">
            <stop stop-color="#FFFFFF" offset="0%"></stop>
            <stop stop-color="#E3E4E4" offset="98.2052365%"></stop>
        </linearGradient>
        <linearGradient x1="35.5090534%" y1="14.4970687%" x2="35.5090534%" y2="85.4862381%" id="linearGradient-5">
            <stop stop-color="#000000" offset="0%"></stop>
            <stop stop-color="#323232" offset="100%"></stop>
        </linearGradient>
        <linearGradient x1="35.5090534%" y1="14.4970687%" x2="35.5090534%" y2="85.4862381%" id="linearGradient-6">
            <stop stop-color="#323232" offset="0%"></stop>
            <stop stop-color="#000000" offset="100%"></stop>
        </linearGradient>
        <linearGradient x1="352.225022%" y1="-123.935343%" x2="619.558214%" y2="-282.468138%" id="linearGradient-7">
            <stop stop-color="#A96E46" offset="0%"></stop>
            <stop stop-color="#FFD0B9" offset="100%"></stop>
        </linearGradient>
        <linearGradient x1="596.914954%" y1="-250.911202%" x2="877.049206%" y2="-403.286427%" id="linearGradient-8">
            <stop stop-color="#A96E46" offset="0%"></stop>
            <stop stop-color="#FFD0B9" offset="100%"></stop>
        </linearGradient>
        <linearGradient x1="27.1514603%" y1="40.339386%" x2="69.2009512%" y2="51.430182%" id="linearGradient-9">
            <stop stop-color="#753200" offset="0%"></stop>
            <stop stop-color="#A04400" offset="100%"></stop>
        </linearGradient>
        <linearGradient x1="133.183197%" y1="-14.0580031%" x2="292.624702%" y2="-126.9648%" id="linearGradient-10">
            <stop stop-color="#A96E46" offset="0%"></stop>
            <stop stop-color="#FFD0B9" offset="100%"></stop>
        </linearGradient>
        <linearGradient x1="0.0144686258%" y1="49.9916534%" x2="71.0036381%" y2="49.9916534%" id="linearGradient-11">
            <stop stop-color="#ED5C37" offset="0%"></stop>
            <stop stop-color="#C14120" offset="100%"></stop>
        </linearGradient>
        <linearGradient x1="22.3595275%" y1="73.1728461%" x2="81.3967037%" y2="26.066%" id="linearGradient-12">
            <stop stop-color="#A96E46" offset="0%"></stop>
            <stop stop-color="#FFD0B9" offset="100%"></stop>
        </linearGradient>
        <linearGradient x1="98.5303654%" y1="32.6353147%" x2="7.91593203%" y2="78.5658598%" id="linearGradient-13">
            <stop stop-color="#A96E46" offset="0%"></stop>
            <stop stop-color="#FFD0B9" stop-opacity="0" offset="100%"></stop>
        </linearGradient>
        <linearGradient x1="-3003.68438%" y1="-7746.88556%" x2="-3027.59224%" y2="-7707.20929%" id="linearGradient-14">
            <stop stop-color="#A96E46" offset="0%"></stop>
            <stop stop-color="#FFD0B9" stop-opacity="0" offset="100%"></stop>
        </linearGradient>
        <linearGradient x1="56.0338772%" y1="30.3005661%" x2="46.2493293%" y2="-12.1286981%" id="linearGradient-15">
            <stop stop-color="#FFFFFF" offset="0%"></stop>
            <stop stop-color="#E3E4E4" offset="98.2052365%"></stop>
        </linearGradient>
        <linearGradient x1="55.9763554%" y1="30.3005661%" x2="46.2850849%" y2="-12.1286981%" id="linearGradient-16">
            <stop stop-color="#FFFFFF" offset="0%"></stop>
            <stop stop-color="#E3E4E4" offset="98.2052365%"></stop>
        </linearGradient>
        <linearGradient x1="54.268587%" y1="30.3005661%" x2="47.3466373%" y2="-12.1286981%" id="linearGradient-17">
            <stop stop-color="#FFFFFF" offset="0%"></stop>
            <stop stop-color="#E3E4E4" offset="98.2052365%"></stop>
        </linearGradient>
        <linearGradient x1="35.5090534%" y1="14.4970687%" x2="35.5090534%" y2="85.4862381%" id="linearGradient-18">
            <stop stop-color="#323232" offset="0%"></stop>
            <stop stop-color="#000000" offset="100%"></stop>
        </linearGradient>
        <linearGradient x1="35.5090534%" y1="14.4970687%" x2="35.5090534%" y2="85.4862381%" id="linearGradient-19">
            <stop stop-color="#000000" offset="0%"></stop>
            <stop stop-color="#323232" offset="100%"></stop>
        </linearGradient>
        <linearGradient x1="40.7265444%" y1="48.6878879%" x2="53.4872759%" y2="53.1587462%" id="linearGradient-20">
            <stop stop-color="#A04400" offset="0%"></stop>
            <stop stop-color="#753200" offset="71%"></stop>
        </linearGradient>
        <linearGradient x1="100.015002%" y1="50.0032799%" x2="0.010339381%" y2="50.0032799%" id="linearGradient-21">
            <stop stop-color="#753200" offset="0%"></stop>
            <stop stop-color="#A04400" offset="100%"></stop>
        </linearGradient>
        <linearGradient x1="0.0144686258%" y1="49.9916534%" x2="71.0036381%" y2="49.9916534%" id="linearGradient-22">
            <stop stop-color="#727272" offset="0%"></stop>
            <stop stop-color="#BFBFBF" offset="100%"></stop>
        </linearGradient>
        <linearGradient x1="100.027001%" y1="49.9995074%" x2="-4.42274169e-14%" y2="49.9995074%" id="linearGradient-23">
            <stop stop-color="#753200" offset="0%"></stop>
            <stop stop-color="#A04400" offset="100%"></stop>
        </linearGradient>
        <linearGradient x1="0.0144686258%" y1="49.9916534%" x2="71.0036381%" y2="49.9916534%" id="linearGradient-24">
            <stop stop-color="#BFBFBF" offset="0%"></stop>
            <stop stop-color="#727272" offset="100%"></stop>
        </linearGradient>
        <linearGradient x1="0.0144686258%" y1="49.9916534%" x2="71.0036381%" y2="49.9916534%" id="linearGradient-25">
            <stop stop-color="#BFBFBF" offset="0%"></stop>
            <stop stop-color="#727272" offset="100%"></stop>
        </linearGradient>
        <linearGradient x1="89.0610268%" y1="121.041982%" x2="187.101711%" y2="170.212194%" id="linearGradient-26">
            <stop stop-color="#A04400" offset="0%"></stop>
            <stop stop-color="#753200" offset="100%"></stop>
        </linearGradient>
        <linearGradient x1="64.9679995%" y1="54.5211167%" x2="32.7094986%" y2="41.4794252%" id="linearGradient-27">
            <stop stop-color="#753200" offset="0%"></stop>
            <stop stop-color="#A04400" offset="100%"></stop>
        </linearGradient>
        <linearGradient x1="71.2939334%" y1="36.1853552%" x2="5.20275654%" y2="54.0372022%" id="linearGradient-28">
            <stop stop-color="#753200" offset="10%"></stop>
            <stop stop-color="#8A3B00" stop-opacity="0.52" offset="48%"></stop>
            <stop stop-color="#9A4100" stop-opacity="0.14" offset="82%"></stop>
            <stop stop-color="#A04400" stop-opacity="0" offset="100%"></stop>
        </linearGradient>
        <linearGradient x1="-17.1372931%" y1="28.66374%" x2="84.4530996%" y2="68.3256921%" id="linearGradient-29">
            <stop stop-color="#A04400" offset="0%"></stop>
            <stop stop-color="#753200" offset="100%"></stop>
        </linearGradient>
        <linearGradient x1="227.071482%" y1="455.320944%" x2="255.127654%" y2="485.660106%" id="linearGradient-30">
            <stop stop-color="#753200" offset="0%"></stop>
            <stop stop-color="#A04400" offset="100%"></stop>
        </linearGradient>
        <linearGradient x1="0.0144686258%" y1="49.9916534%" x2="71.0036381%" y2="49.9916534%" id="linearGradient-31">
            <stop stop-color="#323232" offset="0%"></stop>
            <stop stop-color="#282828" offset="100%"></stop>
        </linearGradient>
        <linearGradient x1="-4.16946057%" y1="36.3634958%" x2="71.0036381%" y2="49.9930605%" id="linearGradient-32">
            <stop stop-color="#727272" offset="0%"></stop>
            <stop stop-color="#BFBFBF" offset="100%"></stop>
        </linearGradient>
        <linearGradient x1="84.0909091%" y1="67.6752089%" x2="-0.968013468%" y2="41.9483485%" id="linearGradient-33">
            <stop stop-color="#753200" offset="0%"></stop>
            <stop stop-color="#A04400" offset="100%"></stop>
        </linearGradient>
        <linearGradient x1="93.4266824%" y1="30.3005661%" x2="24.2697699%" y2="-11.3671932%" id="linearGradient-34">
            <stop stop-color="#EFF5F7" offset="0%"></stop>
            <stop stop-color="#FFFFFF" offset="100%"></stop>
        </linearGradient>
        <linearGradient x1="142.100125%" y1="30.3005661%" x2="-7.24963073%" y2="-12.1286981%" id="linearGradient-35">
            <stop stop-color="#EFF5F7" offset="0%"></stop>
            <stop stop-color="#FFFFFF" offset="98.2052365%"></stop>
        </linearGradient>
        <linearGradient x1="55.034058%" y1="30.3005661%" x2="46.870819%" y2="-12.1286981%" id="linearGradient-36">
            <stop stop-color="#FFFFFF" offset="0%"></stop>
            <stop stop-color="#E3E4E4" offset="98.2052365%"></stop>
        </linearGradient>
        <linearGradient x1="53.2783218%" y1="30.3005661%" x2="47.9621883%" y2="-12.1286981%" id="linearGradient-37">
            <stop stop-color="#FFFFFF" offset="0%"></stop>
            <stop stop-color="#E3E4E4" offset="98.2052365%"></stop>
        </linearGradient>
        <linearGradient x1="0.0144686258%" y1="49.9916534%" x2="71.0036381%" y2="49.9916534%" id="linearGradient-38">
            <stop stop-color="#323232" offset="0%"></stop>
            <stop stop-color="#282828" offset="100%"></stop>
        </linearGradient>
        <linearGradient x1="93.4266824%" y1="30.3005661%" x2="23.0058831%" y2="-12.1286981%" id="linearGradient-39">
            <stop stop-color="#EFF5F7" offset="0%"></stop>
            <stop stop-color="#FFFFFF" offset="98.2052365%"></stop>
        </linearGradient>
        <linearGradient x1="59.5790297%" y1="51.4058738%" x2="127.399755%" y2="40.7640817%" id="linearGradient-40">
            <stop stop-color="#A96E46" offset="0%"></stop>
            <stop stop-color="#FFD0B9" offset="100%"></stop>
        </linearGradient>
        <linearGradient x1="10.1980025%" y1="45.0356922%" x2="93.832136%" y2="50.8262507%" id="linearGradient-41">
            <stop stop-color="#A96E46" offset="0%"></stop>
            <stop stop-color="#FFD0B9" stop-opacity="0" offset="100%"></stop>
        </linearGradient>
        <linearGradient x1="0.0144686258%" y1="49.9916534%" x2="71.0036381%" y2="49.9916534%" id="linearGradient-42">
            <stop stop-color="#323232" offset="0%"></stop>
            <stop stop-color="#282828" offset="100%"></stop>
        </linearGradient>
        <linearGradient x1="0.0144686258%" y1="49.9916534%" x2="71.0036381%" y2="49.9916534%" id="linearGradient-43">
            <stop stop-color="#ED5C37" offset="0%"></stop>
            <stop stop-color="#C14120" offset="100%"></stop>
        </linearGradient>
        <linearGradient x1="52.9490085%" y1="30.3005661%" x2="48.1668901%" y2="-12.1286981%" id="linearGradient-44">
            <stop stop-color="#EFF5F7" offset="0%"></stop>
            <stop stop-color="#FFFFFF" offset="98.2052365%"></stop>
        </linearGradient>
        <linearGradient x1="0.0144686258%" y1="49.9916534%" x2="71.0036381%" y2="49.9916534%" id="linearGradient-45">
            <stop stop-color="#323232" offset="0%"></stop>
            <stop stop-color="#282828" offset="100%"></stop>
        </linearGradient>
        <linearGradient x1="68.3617123%" y1="30.3005661%" x2="38.5863211%" y2="-12.1286981%" id="linearGradient-46">
            <stop stop-color="#EFF5F7" offset="0%"></stop>
            <stop stop-color="#FFFFFF" offset="98.2052365%"></stop>
        </linearGradient>
        <linearGradient x1="0.0144686258%" y1="49.9916534%" x2="71.0036381%" y2="49.9916534%" id="linearGradient-47">
            <stop stop-color="#ED5C37" offset="0%"></stop>
            <stop stop-color="#C14120" offset="100%"></stop>
        </linearGradient>
        <linearGradient x1="0.0144686258%" y1="49.9916534%" x2="71.0036381%" y2="49.9916534%" id="linearGradient-48">
            <stop stop-color="#ED5C37" offset="0%"></stop>
            <stop stop-color="#C14120" offset="100%"></stop>
        </linearGradient>
        <linearGradient x1="0.0144686258%" y1="49.9916534%" x2="71.0036381%" y2="49.9916534%" id="linearGradient-49">
            <stop stop-color="#ED5C37" offset="0%"></stop>
            <stop stop-color="#C14120" offset="100%"></stop>
        </linearGradient>
        <linearGradient x1="0.0144686258%" y1="49.9916534%" x2="71.0036381%" y2="49.9916534%" id="linearGradient-50">
            <stop stop-color="#ED5C37" offset="0%"></stop>
            <stop stop-color="#C14120" offset="100%"></stop>
        </linearGradient>
        <linearGradient x1="0.0144686258%" y1="49.9916534%" x2="71.0036381%" y2="49.9916534%" id="linearGradient-51">
            <stop stop-color="#ED5C37" offset="0%"></stop>
            <stop stop-color="#C14120" offset="100%"></stop>
        </linearGradient>
        <linearGradient x1="28.6866797%" y1="73.2653486%" x2="53.7327492%" y2="45.7496803%" id="linearGradient-52">
            <stop stop-color="#E0E4EB" offset="0%"></stop>
            <stop stop-color="#F3F6FD" offset="99%"></stop>
        </linearGradient>
        <linearGradient x1="40.9508908%" y1="64.7012551%" x2="52.2083617%" y2="46.3473801%" id="linearGradient-53">
            <stop stop-color="#E0E4EB" offset="0%"></stop>
            <stop stop-color="#F3F6FD" offset="99%"></stop>
        </linearGradient>
        <linearGradient x1="52.0593753%" y1="-7.27792454%" x2="76.5389939%" y2="20.227268%" id="linearGradient-54">
            <stop stop-color="#E0E4EB" offset="0%"></stop>
            <stop stop-color="#F3F6FD" offset="99%"></stop>
        </linearGradient>
        <linearGradient x1="53.2621844%" y1="-35.4714344%" x2="73.8050769%" y2="-13.7213396%" id="linearGradient-55">
            <stop stop-color="#E0E4EB" offset="0%"></stop>
            <stop stop-color="#F3F6FD" offset="99%"></stop>
        </linearGradient>
        <linearGradient x1="48.3753574%" y1="52.930372%" x2="51.0739299%" y2="48.7935685%" id="linearGradient-56">
            <stop stop-color="#E0E4EB" offset="0%"></stop>
            <stop stop-color="#F3F6FD" offset="99%"></stop>
        </linearGradient>
        <linearGradient x1="-39.9972614%" y1="36.5249801%" x2="-38.6104722%" y2="25.5330645%" id="linearGradient-57">
            <stop stop-color="#E0E4EB" offset="0%"></stop>
            <stop stop-color="#F3F6FD" offset="99%"></stop>
        </linearGradient>
        <linearGradient x1="-23.1260756%" y1="-63.0906369%" x2="-5.06151916%" y2="-26.3063562%" id="linearGradient-58">
            <stop stop-color="#E0E4EB" offset="0%"></stop>
            <stop stop-color="#F3F6FD" offset="99%"></stop>
        </linearGradient>
        <linearGradient x1="54.4603712%" y1="2.81953425%" x2="45.6089401%" y2="96.9797752%" id="linearGradient-59">
            <stop stop-color="#E6EAF1" offset="0%"></stop>
            <stop stop-color="#F3F6FD" offset="99%"></stop>
        </linearGradient>
        <linearGradient x1="35.5090534%" y1="14.4970687%" x2="35.5090534%" y2="85.4862381%" id="linearGradient-60">
            <stop stop-color="#323232" offset="0%"></stop>
            <stop stop-color="#000000" offset="100%"></stop>
        </linearGradient>
    </defs>
    <g id="Page-1" stroke="none" stroke-width="1" fill="none" fill-rule="evenodd">
        <g id="Web-Application-Development" transform="translate(-80.000000, -199.000000)">
            <g id="1" transform="translate(80.000000, 199.000000)">
                <path d="M482.5,211.943548 C439.516129,126.112903 316.540323,0.403225806 156.774194,0.0801131286 C-9.9516129,-0.258064516 -26.0806452,161.225806 63.7822581,206.104839 C153.645161,250.983871 22.25,306.91129 116.201613,363.16129 C211.274194,420.056452 414.451613,414.717742 464.459677,370.419355 C514.467742,326.120968 501.072581,249.024194 482.5,211.943548 Z" id="Path" fill="url(#linearGradient-1)"></path>
                <path d="M372.580645,364.008066 C371.110118,364.009194 369.711708,363.37111 368.748851,362.259644 C367.785993,361.148178 367.353771,359.67309 367.564516,358.217742 L377.83871,274.096774 L387.741935,275.217742 L377.548387,359.677419 C377.193548,362.153226 372.580645,364.008066 372.580645,364.008066 Z" id="Path" fill="url(#linearGradient-2)" fill-rule="nonzero"></path>
                <path d="M459.25,362.016129 L446.983871,271.693548 L455.298387,268.370968 L469.185484,360.306452 C469.75,363.532258 467.241935,364.169355 464.758065,364.620968 C462.274194,365.072581 459.830645,365.322581 459.25,362.016129 Z" id="Path" fill="url(#linearGradient-3)" fill-rule="nonzero"></path>
                <path d="M427.217742,372.83871 L416.733871,269.870968 L426.975806,269.870968 L437.403226,372.104839 C437.629032,375.282258 435.209677,375.16129 432.822581,375.516129 C430.16129,375.919355 427.475806,376.427419 427.217742,372.83871 Z" id="Path" fill="url(#linearGradient-4)" fill-rule="nonzero"></path>
                <path d="M465.209677,257.879032 C463.040323,273.879032 439.516129,276.16129 412.096774,277.016129 C411.290323,277.435484 381.016129,277.25 366.935484,272.5 L367.427419,164.153226 C367.427419,155 371.33871,139.903226 384.685484,139.677419 C407.104839,139.306452 448.685484,135.895161 464.967742,140.919355 C468.685484,154.290323 471.419355,169.056452 465.201613,207.677419 C461.66129,229.782258 466.25,250.201613 465.209677,257.879032 Z" id="Path" fill="url(#linearGradient-5)" fill-rule="nonzero"></path>
                <path d="M459.032258,147.645161 C463.983871,162.548387 463.379032,171.201613 456.75,195.314516 C445.717742,235.508065 463.830645,256.137097 425.540323,276.403226 C448.758065,275.080645 463.362903,271.5 465.209677,257.854839 C466.25,250.177419 461.66129,229.758065 465.209677,207.653226 C469.774194,179.209677 478.306452,155.967742 466.967742,142.233871 C463.830645,138.451613 457.362903,142.604839 459.032258,147.645161 Z" id="Path" fill="url(#linearGradient-6)" fill-rule="nonzero"></path>
                <polygon id="Path" fill="url(#linearGradient-7)" fill-rule="nonzero" points="370.798387 339.822581 375.072581 347.572581 384.564516 353.725806 388.548387 353.185484 393.919355 341.16129 390.822581 335.669355 382.362903 327.782258"></polygon>
                <path d="M322.330645,353.225806 C316.072581,350.91129 307.693548,345.967742 307.693548,345.967742 C307.693548,345.967742 297.258065,357.258065 296.104839,358.298387 C299.967742,359.822581 298.024194,370.967742 301.209677,372.701613 C304.395161,374.435484 312.854839,366.830645 316.919355,367.758065 C317.282258,364.266129 321.233871,355.177419 322.330645,353.225806 Z" id="Path" fill="url(#linearGradient-8)" fill-rule="nonzero"></path>
                <path d="M272.814516,362.959677 C272.814516,362.959677 265.217742,361.290323 262.330645,362.330645 C259.443548,363.370968 258.677419,365.556452 258.467742,367.854839 C258.258065,370.153226 260.701613,373.451613 270.153226,376.967742 C279.829302,380.417944 289.685132,383.34158 299.677419,385.725806 C302.766129,386.354839 308.016129,387.290323 312.475806,387.024194 C315.009458,386.844289 317.134118,385.042734 317.725806,382.572581 C317.958027,381.649031 318.271063,380.747706 318.66129,379.879032 C319.427419,378.266129 319.16129,376.387097 319.620968,375.040323 C320.080645,373.693548 321.185484,364.637097 318.653226,363.298387 C316.120968,361.959677 311.951613,369.75 306.274194,369.129032 C300.596774,368.508065 299.967742,361.387097 299.967742,361.387097 C299.967742,361.387097 302.677419,358.903226 301.217742,357.169355 C299.758065,355.435484 301.427419,354.048387 300.282258,353.362903 C299.137097,352.677419 295.056452,355.104839 295.056452,355.104839 C295.056452,355.104839 281.943548,360.491935 276.806452,362.669355 C275.758065,363.096774 272.814516,362.959677 272.814516,362.959677 Z" id="Path" fill="#191337" fill-rule="nonzero"></path>
                <path d="M261.846774,369.733871 C278.725806,379.354839 298.274194,379.556452 298.274194,379.556452 C303.741935,380.830645 309.217742,384.467742 316.25,380.290323 L316.870968,379.959677" id="Path" stroke="#FFFFFF" stroke-width="0.99" stroke-linecap="round"></path>
                <path d="M371.620968,343.169355 C371.620968,343.169355 381.346774,346.104839 383.25,349.266129 C385.153226,352.427419 391.637097,342.774194 388.774194,337.314516 C385.91129,331.854839 389.822581,332.741935 392.508065,334.967742 C395.193548,337.193548 397.346774,335.572581 399.241935,337.169355 C401.137097,338.766129 404.975806,342.306452 402.16129,348.943548 C399.346774,355.580645 393.040323,358.443548 390.548387,363.419355 C388.056452,368.395161 388.935484,378.548387 385.104839,382.33871 C381.274194,386.129032 373.959677,390.983871 365.693548,386.927419 C357.427419,382.870968 364.806452,371.806452 366.733871,369.048387 C368.66129,366.290323 369.032258,356.862903 369.153226,352.991935 C369.274194,349.120968 368.596774,344.354839 371.620968,343.169355 Z" id="Path" fill="#191337" fill-rule="nonzero"></path>
                <path d="M392.274194,336.169355 C392.274194,336.169355 397.717742,337.782258 395.83871,344.475806 C393.959677,351.169355 387.096774,356.217742 386.370968,363.258065 C385.645161,370.298387 385.725806,376.532258 378.919355,381.637097 C372.112903,386.741935 369.137097,386.024194 369.137097,386.024194" id="Path" stroke="#FFFFFF" stroke-width="0.76"></path>
                <path d="M429.935484,80.8548387 C431.129032,78.7016129 432.709677,72.7419355 433.459677,70.9193548 C430.330645,70.7419355 426.774194,74.7983871 426.201613,77.5564516 C427.064516,77.6048387 429.193548,80.0967742 429.935484,80.8548387 Z" id="Path" fill="url(#linearGradient-9)" fill-rule="nonzero"></path>
                <path d="M380.274194,226.491935 C371.967742,227.903226 348.185484,239.629032 341.975806,247.379032 C337.201613,253.346774 333.709677,270.862903 325.314516,291.41129 C322.895161,285.306452 319.798387,274.233871 318.258065,268.435484 C316.112903,260.370968 314.137097,242.354839 332.451613,237.677419 C344.572581,234.596774 371.129032,225.895161 380.274194,226.491935 Z" id="Path" fill="#ED5C37" fill-rule="nonzero"></path>
                <path d="M365.798387,225.919355 C365.798387,225.919355 345.354839,235.596774 336.120968,246.887097 C328.862903,255.758065 322.330645,282.709677 322.330645,282.709677" id="Path" stroke="#F3F6FD" stroke-width="1.03" stroke-linecap="round"></path>
                <path d="M383.870968,327.669355 L367.548387,343.693548 C365.403226,342.008065 341.129032,306.08871 341.129032,306.08871 L365.104839,269.653226 C365.104839,269.653226 386.693548,326.612903 383.870968,327.669355 Z" id="Path" fill="#ED5C37" fill-rule="nonzero"></path>
                <path d="M435.66129,173.766129 C441.306452,176.282258 459.354839,173.879032 465.209677,172.887097 C465.209677,172.887097 464.403226,139.241935 454.677419,128.66129 C444.951613,118.080645 423.959677,120.298387 423.959677,120.298387 L402.846774,121.774194 C386.903226,124.040323 378.056452,128.403226 371.846774,138 C364.483871,149.379032 360.483871,163.241935 360.08871,166.596774 C360.214329,166.798938 360.363192,166.985694 360.532258,167.153226 C363.112903,169.766129 371.822581,171.443548 371.822581,171.443548 C371.822581,171.443548 370.790323,183.064516 370.564516,189.516129 C370.564516,190.274194 370.524194,190.975806 370.524194,191.564516 L371.120968,191.701613 L374.096774,224.314516 L448.540323,226.395161 L445.741935,193.774194 C445.741935,193.774194 436.290323,179.354839 435.66129,173.766129 Z" id="Path" fill="#FFFFFF" fill-rule="nonzero"></path>
                <path d="M371.846774,171.435484 C371.846774,171.435484 371.846774,181.596774 372.725806,188.846774 C356.032258,196.370968 350.41129,202.346774 350.629032,203.572581 L346.137097,197.620968 C345.424691,196.261191 345.345162,194.657214 345.919562,193.233634 C346.493962,191.810054 347.664372,190.710414 349.120968,190.225806 L356.112903,188.193548 L360.532258,167.145161 C363.112903,169.758065 371.846774,171.435484 371.846774,171.435484 Z" id="Path" fill="url(#linearGradient-10)" fill-rule="nonzero"></path>
                <path d="M446.016129,226.459677 C446.016129,226.459677 454.491935,256.072581 426.443548,265.919355 C408.298387,272.290323 374.193548,270.967742 374.193548,270.967742 C374.193548,270.967742 323.870968,359.451613 321.774194,358.58871 L301.612903,349.193548 C299.814516,348.459677 329.83871,255.475806 335.975806,247.919355 C342.217742,240.201613 351.766129,229.177419 360.072581,227.758065 C369.080645,226.225806 376.306452,224.41129 376.306452,224.41129 L446.016129,226.459677 Z" id="Path" fill="url(#linearGradient-11)" fill-rule="nonzero"></path>
                <path d="M425.548387,93.5483871 C425.475806,93.6290323 425.403226,93.7258065 425.322581,93.8064516 C425.048774,95.3501785 424.873688,96.9097948 424.798387,98.4758065 C424.798387,98.7177419 424.798387,98.9516129 424.75,99.2016129 C424.58871,102.096774 424.362903,105.83871 424.16129,109.459677 C423.862903,114.677419 423.798387,119.185484 423.75,120.927419 C423.620968,125.169355 418.741935,129.83871 409.822581,129.564516 C404.801749,129.569577 400.403064,126.202764 399.096774,121.354839 C399.096774,121.354839 398.830645,120.548387 398.935484,117.112903 L398.983871,115.596774 L399.024194,114.193548 L399.024194,112.475806 C398.228826,112.421655 397.437209,112.32203 396.653226,112.177419 C390.491935,111.024194 380.927419,106.596774 378.322581,96.4596774 C376.508065,89.3709677 379.419355,83.0725806 379.677419,78.9758065 C379.935484,74.8790323 378.419355,71.8790323 377.91129,67.2419355 C377.816786,66.3473206 377.795209,65.4465007 377.846774,64.5483871 C378.035301,60.8323811 379.240384,57.2394474 381.330645,54.1612903 C381.785067,53.5140955 382.346949,52.9494862 382.991935,52.4919355 C406.580645,37.0403226 428.217742,41.0564516 433.419355,51.6290323 C439.169355,63.3225806 431.806452,75.8870968 429.153226,78.0887097 C432.056452,80.5483871 431.798387,86.1451613 425.548387,93.5483871 Z" id="Path" fill="url(#linearGradient-12)" fill-rule="nonzero"></path>
                <line x1="435.709677" y1="173.467742" x2="433.741935" y2="162.104839" id="Path" stroke="#FFFFFF" stroke-width="1.03" stroke-linecap="round"></line>
                <line x1="371.846774" y1="171.435484" x2="373.604839" y2="162.104839" id="Path" stroke="#FFFFFF" stroke-width="1.03" stroke-linecap="round"></line>
                <path d="M424.75,99.1935484 C418.96609,108.174927 409.532046,114.165545 398.943548,115.580645 L398.983871,114.177419 L398.983871,112.451613 C398.188628,112.400464 397.396993,112.303529 396.612903,112.16129 C402.258065,108.935484 417.830645,99.8225806 425.467742,93.5322581 L425.25,93.7903226 C424.967566,95.3357144 424.789743,96.8984044 424.717742,98.4677419 C424.790323,98.7177419 424.766129,98.9516129 424.75,99.1935484 Z" id="Path" fill="url(#linearGradient-13)" fill-rule="nonzero"></path>
                <path d="M423.879032,82.0645161 C423.879032,82.0645161 426.241935,79.1370968 427.677419,81.5241935 C429.112903,83.9112903 426.483871,87.7419355 426.483871,87.7419355 L423.879032,82.0645161 Z" id="Path" fill="url(#linearGradient-14)" fill-rule="nonzero"></path>
                <path d="M396.951613,127.967742 C396.951613,127.967742 398.120968,135.467742 410.983871,134.741935 C423.846774,134.016129 427.741935,123.991935 427.741935,123.991935" id="Path" stroke="#FFFFFF" stroke-width="1.03" stroke-linecap="round"></path>
                <path d="M191.306452,368.750001 C192.781223,368.751081 194.18369,368.111295 195.149563,366.996826 C196.115436,365.882357 196.549392,364.403194 196.33871,362.943548 L184.346774,274 L174.41129,275.120968 L186.290323,364.387097 C186.637097,366.935484 191.306452,368.750001 191.306452,368.750001 Z" id="Path" fill="url(#linearGradient-15)" fill-rule="nonzero"></path>
                <path d="M102.612903,362.217742 L114.919355,271.580645 L106.572581,268.25 L92.6451613,360.483871 C92.0725806,363.766129 94.5967742,364.362903 97.0806452,364.814516 C99.5645161,365.266129 102.032258,365.564516 102.612903,362.217742 Z" id="Path" fill="url(#linearGradient-16)" fill-rule="nonzero"></path>
                <path d="M134.758065,373.080645 L145.241935,269.75 L135,269.75 L124.516129,372.346774 C124.290323,375.572581 126.717742,375.41129 129.112903,375.766129 C131.798387,376.169355 134.491935,376.685484 134.758065,373.080645 Z" id="Path" fill="url(#linearGradient-17)" fill-rule="nonzero"></path>
                <path d="M96.6370968,257.725806 C98.8064516,273.782258 122.443548,276.072581 149.927419,276.927419 C150.604839,277.266129 171.040323,277.209677 186.217742,274.564516 C191.442019,273.670008 195.254727,269.130908 195.233956,263.830645 L194.75,163.709677 C194.75,154.532258 190.822581,139.379032 177.427419,139.153226 C154.927419,138.782258 113.209677,135.354839 96.8709677,140.403226 C93.1370968,153.814516 90.4193548,168.629032 96.6370968,207.387097 C100.193548,229.532258 95.5887097,250 96.6370968,257.725806 Z" id="Path" fill="url(#linearGradient-18)" fill-rule="nonzero"></path>
                <path d="M102.830645,147.104839 C97.8629032,162.064516 98.4677419,170.741935 105.120968,194.943548 C116.193548,235.266129 98.016129,255.975806 136.443548,276.314516 C113.145161,274.983871 98.483871,271.387097 96.6370968,257.725806 C95.5887097,250.016129 100.193548,229.5 96.6370968,207.346774 C92.0483871,178.806452 83.4919355,155.483871 94.8709677,141.701613 C98.0241935,137.903226 104.508065,142.048387 102.830645,147.104839 Z" id="Path" fill="url(#linearGradient-19)" fill-rule="nonzero"></path>
                <path d="M185.024194,359.274194 C187,364.032258 190.064516,367.717742 193.08871,366.725806 C194.746854,366.326562 195.868518,364.780854 195.733871,363.080645 L195.733871,363.016129 C196.137097,362.16129 197.596774,351.024194 198.306452,347.572581 C199.064516,343.951613 201.153226,338.201613 201.225806,332.572581 C201.282258,328.177419 232.967742,288.782258 234.862903,283.596774 C227.975806,280.370968 213.354839,277.693548 209.435484,277.104839 L190.080645,326.733871 L188.032258,327.241935 C188.032258,327.241935 186.120968,329.193548 185.508065,337.354839 C184.895161,345.516129 183.064516,354.508065 185.024194,359.274194 Z" id="Path" fill="url(#linearGradient-20)" fill-rule="nonzero"></path>
                <path d="M178.225806,339.306452 C178.225806,339.306452 182.741935,346.709677 180.645161,353.556452 C178.548387,360.403226 177.25,362.991935 179.435484,366.346774 C181.620968,369.701613 189.580645,377.524194 195.322581,378.443548 C201.064516,379.362903 199.193548,373.153226 198.225806,370.314516 L195.766129,362.983871 L195.766129,363.048387 C195.900776,364.748596 194.779112,366.294304 193.120968,366.693548 C190.104839,367.685484 187.040323,364 185.056452,359.241935 C183.072581,354.483871 184.951613,345.475806 185.564516,337.322581 C186.177419,329.169355 188.08871,327.209677 188.08871,327.209677 L188.201613,327.209677 C185.868821,326.784491 183.460769,327.180608 181.387097,328.330645 C177.435484,330.645161 176.467742,335.225806 174.129032,337.967742 C171.950172,340.771113 169.915286,343.683477 168.032258,346.693548 L169.25,348.741935 L178.225806,339.306452 Z" id="Path" fill="#13122E" fill-rule="nonzero"></path>
                <path d="M174.346774,343.379032 C175.153226,348.467742 177.241935,352.774194 180.403226,352.516129 C182.108293,352.529811 183.567857,351.296376 183.83871,349.612903 L183.887097,349.556452 C184.483871,348.814516 188.548387,338.354839 190.056452,335.169355 C191.669355,331.822581 195.040323,326.733871 196.443548,321.282258 C197.540323,317.024194 224.927419,284.83871 228,280.25 C221.814516,279.443548 208.895161,276.282258 205.233871,274.790323 L187,312.967742 L184.887097,312.967742 C184.887097,312.967742 182.572581,314.419355 180.048387,322.201613 C177.524194,329.983871 173.556452,338.274194 174.346774,343.379032 Z" id="Path" fill="url(#linearGradient-21)" fill-rule="nonzero"></path>
                <path d="M172.508065,322.370968 C172.508065,322.370968 175.137097,330.629032 171.443548,336.782258 C167.75,342.935484 165.903226,345.137097 167.233871,348.879032 C168.564516,352.620968 174.435484,362.145161 179.790323,364.443548 C185.145161,366.741935 184.806452,360.217742 184.540323,357.185484 C184.387097,355.387097 184.096774,351.943548 183.887097,349.483871 L183.83871,349.540323 C183.567857,351.223796 182.108293,352.45723 180.403226,352.443548 C177.241935,352.701613 175.137097,348.41129 174.346774,343.306452 C173.556452,338.201613 177.508065,329.903226 180.040323,322.129032 C182.572581,314.354839 184.879032,312.895161 184.879032,312.895161 L185,312.895161 C182.833584,311.93088 180.400305,311.745677 178.112903,312.370968 C173.725806,313.685484 171.66129,317.903226 168.806452,320.016129 C166.023334,322.224324 163.353281,324.571387 160.806452,327.048387 L161.508065,329.322581 L172.508065,322.370968 Z" id="Path" fill="#201F4F" fill-rule="nonzero"></path>
                <path d="M205.241935,226.008065 C180.717742,221.596774 172.274194,221.169355 172.274194,221.169355 L171.959677,211.596774 C171.959677,211.596774 187.008065,164.330645 187.008065,159.5 C187.008065,152.637097 179.830645,144.677419 175.064516,135.467742 C172.41129,130.33871 164.927419,124.572581 159.282258,123.370968 L143.040323,121.701613 C143.040323,121.701613 132.112903,125.193548 128.951613,142.233871 C125.790323,159.274194 138.75,193.524194 137.596774,204.548387 C136.443548,215.572581 125.895161,230.879032 133.08871,245.524194 C141.362903,262.379032 177.024194,265.741935 193.572581,264.201613 C196.854839,263.895161 207.282258,266.362903 204.282258,274.395161 C217.596774,279.709677 235.33871,284.427419 236.177419,284.758065 C256.637097,248.072581 254.298387,234.870968 205.241935,226.008065 Z" id="Path" fill="url(#linearGradient-22)" fill-rule="nonzero"></path>
                <path d="M182.258065,198.435484 L203.556452,217.951613 L218.120968,219.758065 C219.162313,219.758307 220.168162,220.136575 220.951613,220.822581 C223.120968,222.717742 226.193548,226.516129 226.419355,226.66129 C226.645161,226.806452 229.798387,229.83871 231.701613,231.693548 C232.177419,232.16129 231.524194,232.830645 230.895161,232.669355 C228.887097,232.169355 226,231.145161 224.572581,229.225806 C222.266129,226.112903 220.258065,225.435484 219.959677,225.435484 C219.66129,225.435484 215.435484,224.629032 215.733871,225.83871 C216.032258,227.048387 220.354839,227.846774 220.66129,228.153226 C220.967742,228.459677 225.58871,229.943548 224.693548,231.758065 C223.798387,233.572581 215.193548,229.403226 213.233871,229.024194 C211.274194,228.645161 206.862903,228.516129 204.854839,227.91129 C202.846774,227.306452 180.040323,211.919355 180.040323,211.919355 L182.258065,198.435484 Z" id="Path" fill="url(#linearGradient-23)" fill-rule="nonzero"></path>
                <polygon id="Path" fill="url(#linearGradient-24)" fill-rule="nonzero" style="mix-blend-mode: multiply;" points="150.483871 140.75 150.798387 141.41129 176.056452 189.435484 171.935484 189.08871"></polygon>
                <path d="M133.064516,153.91129 C133.064516,153.91129 157.169355,203.5 166.419355,204.717742 C169.233871,204.717742 175.040323,200.564516 175.040323,200.564516 C173.806683,204.622391 169.782014,207.160131 165.58871,206.524194 C152.508065,205.129032 133.064516,153.91129 133.064516,153.91129 Z" id="Path" fill="url(#linearGradient-25)" fill-rule="nonzero" style="mix-blend-mode: multiply;"></path>
                <path d="M141.193548,103.774194 C146.721925,111.909863 155.537214,117.214951 165.314516,118.290323 L165.241935,117 L165.169355,115.387097 C158.241935,113.346774 149.967742,108.556452 140.33871,98.5241935 C140.401559,98.6058017 140.468865,98.6838775 140.540323,98.7580645 C140.833366,100.17621 141.032722,101.612112 141.137097,103.056452 C141.129032,103.322581 141.177419,103.540323 141.193548,103.774194 Z" id="Path" fill="url(#linearGradient-26)" fill-rule="nonzero"></path>
                <path d="M182.258065,84.1209677 C182,81.3467742 182.540323,78.4032258 182.967742,75.3225806 L182.967742,75.3225806 C182.967742,75.2580645 182.967742,75.1854839 182.967742,75.1209677 C183.104839,74.1048387 183.233871,73.0725806 183.330645,72.0403226 C183.476098,70.420073 183.364505,68.7870154 183,67.2016129 C181.104839,58.6209677 172.451613,51.9193548 164.241935,51.3548387 C154.564516,50.6935484 139.685484,54.0483871 136.709677,65.5322581 C136.162661,67.6991367 135.891697,69.9264622 135.903226,72.1612903 C135.932614,76.0529845 136.544226,79.918371 137.717742,83.6290323 C137.301888,83.821574 136.91832,84.0772857 136.580645,84.3870968 C135.370968,85.4758065 134.798387,87.1774194 135.16129,89.3629032 C135.540323,91.8629032 137.120968,95.0080645 140.282258,98.5564516 C140.342726,98.6399713 140.410172,98.718209 140.483871,98.7903226 C140.693685,99.7061385 140.836536,100.636016 140.91129,101.572581 C140.975806,102.112903 141.032258,102.645161 141.072581,103.096774 C141.072581,103.306452 141.112903,103.532258 141.137097,103.758065 C141.209677,104.653226 141.290323,105.508065 141.354839,106.33871 C142.491935,119.524194 143.322581,123.854839 143.322581,123.854839 C143.483871,126.701613 157.75,134.564516 165.814516,140.193548 C166.619659,140.764484 167.694855,140.774815 168.510821,140.219455 C169.326786,139.664096 169.71159,138.660065 169.475806,137.701613 L165.443548,120.830645 L165.322581,119.032258 L165.177419,117.008065 L165.104839,115.395161 L165.75,115.322581 C166.225806,115.266129 166.741935,115.177419 167.290323,115.072581 C172.935484,113.879032 181.66129,109.596774 183.830645,100.177419 C185.41129,93.6451613 182.58871,87.9032258 182.258065,84.1209677 Z" id="Path" fill="url(#linearGradient-27)" fill-rule="nonzero"></path>
                <path d="M183.362903,72.0322581 C183.266129,73.0645161 183.137097,74.0967742 183,75.1129032 C177.943548,76.5887097 167.604839,75.1612903 159.056452,78.4677419 C155.193548,79.9677419 150.991935,86.6451613 146.758065,91.2177419 C144.798387,85.3064516 137.080645,73.6612903 137.741935,70.9354839 C140.862903,58.6612903 161.935484,78.266129 181.048387,65.25 C181.81655,65.7885823 182.487423,66.4540012 183.032258,67.2177419 C183.394217,68.7953189 183.505795,70.4200096 183.362903,72.0322581 Z" id="Path" fill="url(#linearGradient-28)" fill-rule="nonzero"></path>
                <path d="M165.241935,117.024194 L165.387097,119.048387 C158.080645,118.177419 149.314516,115.16129 141.41129,106.346774 C141.33871,105.540323 141.274194,104.669355 141.193548,103.774194 C141.193548,103.540323 141.145161,103.322581 141.137097,103.104839 C141.137097,102.66129 141.032258,102.129032 140.975806,101.58871 C150.653226,109.403226 158.862903,113.475806 165.822581,115.354839 C165.58871,115.395161 165.379032,115.41129 165.169355,115.427419 L165.241935,117.024194 Z" id="Path" fill="url(#linearGradient-29)" fill-rule="nonzero"></path>
                <path d="M141.612903,87.9516129 C141.612903,87.9516129 139.379032,85.3064516 138.104839,87.5403226 C136.830645,89.7741935 139.33871,93.2419355 139.33871,93.2419355 L141.612903,87.9516129 Z" id="Path" fill="url(#linearGradient-30)" fill-rule="nonzero"></path>
                <path d="M172.701613,44.0967742 C163.717742,48.3145161 165.887097,37.8548387 157.91129,42.1935484 C152.653226,45.0564516 150.08871,43.6209677 145.129032,43.7177419 C140.169355,43.8145161 134.427419,48.1854839 133.08871,53.5403226 C132.33871,56.5322581 131.733871,55.0322581 128.991935,57.8064516 C127.935484,58.8709677 124.370968,60.3467742 124.653226,64.4596774 C124.935484,68.5725806 121.016129,65.7741935 119.741935,73.983871 C119.548387,75.2419355 120.451613,76.5967742 120.056452,78.7258065 C119.46973,82.2374058 120.385688,85.8339314 122.580645,88.6370968 C128.951613,96.983871 132.975806,95.7580645 141.758065,110.104839 C141.627367,106.393179 141.271876,102.692849 140.693548,99.0241935 C136.177419,91.9435484 134.427419,90.4193548 135.701613,86.6451613 C138.177419,79.266129 146.766129,91.2177419 146.766129,91.2177419 C146.766129,91.2177419 147.33871,83.5887097 158.524194,76.0887097 C152.66129,75.6532258 148.669355,75.6532258 148.669355,75.6532258 C148.669355,75.6532258 165.096774,70.5241935 166.475806,70.8709677 C176.064516,73.2903226 179.266129,72.9274194 184.346774,70.8064516 C187.701613,69.4112903 182.080645,62.0403226 184.346774,61.0806452 C187.475806,59.75 184.346774,55.2983871 184.346774,53.1209677 C184.33871,45.6290323 176.129032,42.4919355 172.701613,44.0967742 Z" id="Path" fill="url(#linearGradient-31)" fill-rule="nonzero"></path>
                <path d="M147.75,133.927419 L171.943548,189.08871 L211.733871,198.435484 L211.733871,206.387097 C211.733871,206.387097 177.16129,207.596774 166.508065,206.387097 C155.854839,205.177419 131.677419,150.41129 131.677419,150.41129" id="Path" fill="url(#linearGradient-32)" fill-rule="nonzero"></path>
                <path d="M211.725806,198.435484 C211.725806,198.435484 226.879032,198.887097 230.887097,206.387097 L211.725806,206.387097 L211.725806,198.435484 Z" id="Path" fill="url(#linearGradient-33)" fill-rule="nonzero"></path>
                <path d="M369.983871,186.290323 C369.983871,186.290323 377.572581,185.669355 377.572581,192.016129 C377.572581,198.362903 369.983871,198.467742 369.983871,198.467742" id="Path" stroke="url(#linearGradient-34)" stroke-width="5.64"></path>
                <path d="M370.870968,206.766129 L352.016129,206.766129 L349.370968,183.741935 C349.327371,183.03638 349.583545,182.345187 350.076442,181.83847 C350.569339,181.331754 351.253186,181.05657 351.959677,181.080645 L370.048387,181.080645 C370.742352,181.058091 371.414791,181.323307 371.906521,181.81351 C372.39825,182.303712 372.665556,182.975323 372.645161,183.669355 L370.870968,206.766129 Z" id="Path" fill="url(#linearGradient-35)" fill-rule="nonzero"></path>
                <line x1="229.887097" y1="218.379032" x2="196.532258" y2="375.798387" id="Path" stroke="url(#linearGradient-36)" stroke-width="15.14" stroke-linecap="round"></line>
                <line x1="325.701613" y1="218.379032" x2="352.66129" y2="376.048387" id="Path" stroke="url(#linearGradient-37)" stroke-width="15.14" stroke-linecap="round"></line>
                <path d="M130.596774,206.387097 L424.701613,206.387097 C429.538558,206.387097 433.459677,210.308216 433.459677,215.145161 L433.459677,222.620968 L121.83871,222.620968 L121.83871,215.145161 C121.83871,210.308216 125.759829,206.387097 130.596774,206.387097 L130.596774,206.387097 Z" id="Path" fill="url(#linearGradient-38)" fill-rule="nonzero"></path>
                <path d="M228.370968,186.290323 C228.370968,186.290323 220.782258,185.669355 220.782258,192.016129 C220.782258,198.362903 228.370968,198.467742 228.370968,198.467742" id="Path" stroke="url(#linearGradient-39)" stroke-width="5.64"></path>
                <path d="M227.483871,206.766129 L246.33871,206.766129 L248.983871,183.741935 C249.027468,183.03638 248.771294,182.345187 248.278396,181.83847 C247.785499,181.331754 247.101653,181.05657 246.395161,181.080645 L228.306452,181.080645 C227.612486,181.058091 226.940047,181.323307 226.448318,181.81351 C225.956588,182.303712 225.689282,182.975323 225.709677,183.669355 L227.483871,206.766129 Z" id="Path" fill="url(#linearGradient-35)" fill-rule="nonzero"></path>
                <path d="M463.830645,173.137097 C458.66129,173.943548 441.25,176.266129 435.66129,173.766129 C436.25,179.354839 436.306452,186.274194 436.306452,186.274194 C436.306452,186.274194 413.209677,195.096774 392.387097,196.58871 C390.386687,196.362529 388.401854,196.015115 386.443548,195.548387 C386.443548,195.548387 381.137097,194.25 376.395161,193.225806 C371.653226,192.201613 368.330645,192.016129 365.040323,193.040323 C361.75,194.064516 348.91129,201.225806 349.120968,204.330645 C349.330645,207.435484 368.016129,207.491935 370.717742,206.935484 C373.419355,206.379032 385.604839,204.887097 386.443548,204.887097 C386.66129,204.887097 389.137097,205.346774 392.895161,206.024194 C400.548387,206.024194 419.685484,206.669355 434.741935,206.419355 C449.798387,206.169355 457.548387,209.153226 461.516129,200.185484 C464.516129,193.258065 463.758065,180.25 463.830645,173.137097 Z" id="Path" fill="url(#linearGradient-40)" fill-rule="nonzero"></path>
                <path d="M423.879032,62.6693548 L422.266129,73.8064516 L420.766129,64.8064516 C420.766129,64.8064516 414.185484,60.8870968 409.040323,62.2258065 C403.895161,63.5645161 390.91129,61.0806452 384.903226,59.4596774 C381.354839,58.5 379.104839,61.7419355 377.854839,64.5483871 C378.043365,60.8323811 379.248449,57.2394474 381.33871,54.1612903 C387.346774,55.5564516 393.354839,58.5645161 394.66129,59 C396.919355,59.8064516 402.266129,48.8225806 406.653226,44.8467742 C411.040323,40.8709677 414.758065,51.0483871 414.758065,51.0483871 L423.879032,62.6693548 Z" id="Path" fill="url(#linearGradient-41)" fill-rule="nonzero"></path>
                <path d="M434,70.016129 C434.669355,67.1532258 435.83871,63.8790323 435.685484,59.5322581 C435.354839,50.1935484 428.935484,45.4112903 419.862903,41.9193548 L411.104839,39.1532258 C410.298387,38.8951613 395.491935,34.9112903 387.717742,37.6774194 C384.790323,38.7096774 380.620968,41.7983871 380.185484,44.3145161 C379.056452,50.7177419 378.266129,54.1129032 378.806452,59.25 C384.395161,46.766129 391.153226,65.8225806 409.846774,57.9354839 C410.766129,57.5483871 414.766129,50.3225806 407.943548,47.75 C417.620968,49.2741935 411.758065,58.9596774 411.758065,58.9596774 L422.822581,62.1854839 C422.822581,62.1854839 423.629032,67.8306452 421.774194,76.7016129 C423.936739,76.0343467 426.221937,75.8634392 428.459677,76.2016129 C430.774194,74.2419355 433.645161,71.516129 434,70.016129 Z" id="Path" fill="url(#linearGradient-42)" fill-rule="nonzero"></path>
                <path d="M41.1290323,342.282258 C41.1290323,342.282258 59.3064516,320.790323 57.3709677,312.314516 C55.4354839,303.83871 66.75,293.548387 66.9354839,281.217742 C67.1854839,267.241935 60.1532258,270.975806 57.7258065,265 C54.1209677,256.129032 62.1451613,248.298387 50.0080645,244.91129 C41.7258065,242.596774 35.9032258,247.112903 36.6532258,236.225806 C37.4032258,225.33871 33.733871,211.854839 27.0967742,206.959677 C17.6129032,200 -1.67741935,199.427419 4.83870968,213.516129 C11.6693548,228.322581 5.64516129,252.701613 4.03225806,259.379032 C-12.7822581,329.943548 41.1290323,342.282258 41.1290323,342.282258 Z" id="Path" fill="url(#linearGradient-43)" fill-rule="nonzero"></path>
                <path d="M20.8709677,221.483871 C22.9516129,239.701613 44.4596774,268.814516 34.7096774,288.274194 C24.9596774,307.733871 39.7419355,337.846774 39.7419355,337.846774" id="Path" stroke="url(#linearGradient-44)" stroke-width="0.6" opacity="0.413806734" stroke-linecap="round"></path>
                <path d="M84.4677419,310.362903 C74.2580645,314.201613 85.2741935,328.225806 74.1451613,334.556452 C63.016129,340.887097 48.6774194,344.080645 48.0241935,341.008065 C47.9758065,340.806452 47.3790323,338.774194 46.7419355,335.798387 C46.5967742,335.112903 46.4516129,334.370968 46.3064516,333.596774 L46.1854839,332.935484 C45.7794226,330.560431 45.5101617,328.164009 45.3790323,325.758065 C45.3790323,325.677419 45.3790323,325.604839 45.3790323,325.532258 C45.3306452,324.575269 45.3145161,323.615591 45.3306452,322.653226 C45.3306452,321.725806 45.3951613,320.806452 45.483871,319.91129 C45.8145161,316.5 46.733871,313.354839 48.6209677,311.096774 C49.0920911,310.515554 49.6339129,309.995405 50.233871,309.548387 C57.983871,303.814516 61.0806452,306.596774 61.0241935,298.129032 C60.9193548,283.612903 64.8145161,281.443548 69.3951613,282.879032 C73.9758065,284.314516 77.516129,284.677419 78.2258065,279.330645 C78.9354839,273.983871 68.8951613,250.104839 79.2903226,250.104839 C86.8790323,250.104839 94.0725806,274.58871 92.25,278.556452 C87.8870968,288.056452 96.9677419,289.548387 99.1209677,296.467742 C101.274194,303.387097 94.6693548,306.532258 84.4677419,310.362903 Z" id="Path" fill="url(#linearGradient-45)" fill-rule="nonzero"></path>
                <path d="M46.0241935,361.854839 C46.0241935,361.854839 43.2822581,335.129032 62.4516129,320.16129 C71.1129032,313.395161 87.2096774,289.241935 85.75,263.120968" id="Path" stroke="url(#linearGradient-46)" stroke-width="0.6" opacity="0.413806734" stroke-linecap="round"></path>
                <path d="M20.6854839,275.185484 C23.4435484,270.217742 43.266129,290.685484 39.7741935,295.177419 C36.2822581,299.669355 18.0645161,279.91129 20.6854839,275.185484 Z" id="Path" fill="url(#linearGradient-47)" fill-rule="nonzero" style="mix-blend-mode: multiply;"></path>
                <path d="M15.6935484,303.08871 C16.1290323,297.314516 39.983871,305.645161 38.7580645,311.290323 C37.5322581,316.935484 15.3225806,308.596774 15.6935484,303.08871 Z" id="Path" fill="url(#linearGradient-48)" fill-rule="nonzero" style="mix-blend-mode: multiply;"></path>
                <path d="M60.8064516,277.58871 C65.0403226,281.112903 44.1451613,300.233871 40.4193548,295.991935 C36.6935484,291.75 56.7741935,274.233871 60.8064516,277.58871 Z" id="Path" fill="url(#linearGradient-49)" fill-rule="nonzero" style="mix-blend-mode: multiply;"></path>
                <path d="M17.2741935,323.854839 C16.233871,318.556452 42.5806452,321.604839 42.8064516,327.080645 C43.0322581,332.556452 18.2741935,328.903226 17.2741935,323.854839 Z" id="Path" fill="url(#linearGradient-50)" fill-rule="nonzero" style="mix-blend-mode: multiply;"></path>
                <path d="M46.9193548,251.322581 C52.2419355,251.733871 45.3629032,280.201613 40.1048387,278.887097 C34.8467742,277.572581 41.8548387,250.935484 46.9193548,251.322581 Z" id="Path" fill="url(#linearGradient-51)" fill-rule="nonzero" style="mix-blend-mode: multiply;"></path>
                <path d="M22.6854839,273.830645 C25.4354839,268.870968 45.266129,289.330645 41.766129,293.822581 C38.266129,298.314516 20.0564516,278.556452 22.6854839,273.830645 Z" id="Path" fill="url(#linearGradient-52)" fill-rule="nonzero"></path>
                <path d="M17.2822581,301.903226 C17.6774194,296.129032 41.5806452,304.435484 40.3548387,310.137097 C39.1290323,315.83871 16.9354839,307.41129 17.2822581,301.903226 Z" id="Path" fill="url(#linearGradient-53)" fill-rule="nonzero"></path>
                <path d="M61.6129032,276.322581 C65.8467742,279.83871 44.9516129,298.967742 41.2177419,294.725806 C37.483871,290.483871 57.5806452,272.967742 61.6129032,276.322581 Z" id="Path" fill="url(#linearGradient-54)" fill-rule="nonzero"></path>
                <path d="M59.6129032,300.806452 C63.1693548,305.080645 42.9919355,315.822581 39.9596774,310.975806 C36.9274194,306.129032 56.2258065,296.701613 59.6129032,300.806452 Z" id="Path" fill="url(#linearGradient-55)" fill-rule="nonzero"></path>
                <path d="M41.5241935,272.169355 C41.5241935,272.169355 42.1290323,286.959677 40.2903226,299.862903 C38.4516129,312.766129 43.0967742,334.612903 50.6612903,341.596774" id="Path" stroke="url(#linearGradient-56)" stroke-width="1.34"></path>
                <path d="M17.2741935,322.846774 C16.233871,317.540323 42.5806452,320.58871 42.8064516,326.072581 C43.0322581,331.556452 18.2741935,327.895161 17.2741935,322.846774 Z" id="Path" fill="url(#linearGradient-57)" fill-rule="nonzero"></path>
                <path d="M60.5564516,314.177419 C63.2903226,319.080645 44.4274194,331.330645 42.2177419,325.983871 C40.0080645,320.637097 57.9596774,309.5 60.5564516,314.177419 Z" id="Path" fill="url(#linearGradient-58)" fill-rule="nonzero"></path>
                <path d="M48.2096774,250.951613 C53.5322581,251.362903 46.6451613,279.822581 41.3870968,278.516129 C36.1290323,277.209677 43.1451613,250.556452 48.2096774,250.951613 Z" id="Path" fill="url(#linearGradient-59)" fill-rule="nonzero"></path>
                <path d="M52.7741935,380.814516 L36.3951613,380.814516 C29.0322581,380.814516 22.7741935,375 21.7741935,367.241935 L17.7419355,341.935484 C17.5818125,340.933469 17.8593429,339.910914 18.5040885,339.127348 C19.148834,338.343782 20.0988078,337.874537 21.1129032,337.83871 L68.0725806,337.83871 C69.087146,337.874865 70.0376354,338.343852 70.6836056,339.127033 C71.3295758,339.910214 71.6091529,340.932573 71.4516129,341.935484 L67.4193548,367.233871 C66.4032258,375 60.1532258,380.814516 52.7741935,380.814516 Z" id="Path" fill="url(#linearGradient-60)" fill-rule="nonzero"></path>
            </g>
        </g>
    </g>
</svg>